…
``` r
        library(ggplot2)
        sum_by_day <- rawData %>%
          group_by(date) %>%
            summarise(steps_taken_by_day = sum(steps, na.rm=TRUE), .groups="drop") %>%
          ungroup()
        mean_steps <- mean(sum_by_day$steps_taken_by_day, na.rm=TRUE)
        median_steps <- median(sum_by_day$steps_taken_by_day, na.rm=TRUE)
        
        sum_by_day
```

```
## # A tibble: 61 × 2
##    date       steps_taken_by_day
##    <chr>                   <int>
##  1 2012-10-01                  0
##  2 2012-10-02                126
##  3 2012-10-03              11352
##  4 2012-10-04              12116
##  5 2012-10-05              13294
##  6 2012-10-06              15420
##  7 2012-10-07              11015
##  8 2012-10-08                  0
##  9 2012-10-09              12811
## 10 2012-10-10               9900
## # ℹ 51 more rows
```
…
